{
      "name": "hunger-research",
      "resources": [
        {
          "path": "hunger-research.csv",
          "profile": "tabular-data-package",
          "format": "csv",
          "schema": {
            "fields": [
              {
                "name": "Year",
                "type": "year"
              },
              {
                "name": "Famine victims",
                "type": "number"
              },
              {
                "name": "Undernourished people (mio)",
                "type": "number"
              },
              {
                "name": "Undernourished people (%)",
                "type": "number"
              }
            ]
          }
        }
      ]
    }